{
  "data": [
    {
      "claimId": 46188073,
      "sfNo": 1,
      "addOrderNo": 1,
      "versionNo": 1,
      "approvedStatus": "P",
      "breResultCode": null,
      "contractId": 577651535,
      "customerType": null,
      "entryDate": "2020-07-23T13:20:04.000+0000",
      "groupCode": null,
      "hclmChannel": "CENTRAL_PROVISION",
      "hclmUsage": null,
      "instituteCode": 6060,
      "isLimitUpdated": true,
      "logId": 232990881,
      "partitionNo": 1,
      "partnerId": 32630331,
      "complementaryTypeCode": null,
      "statusCode": "P",
      "tpaCompanyCode": null,
      "userId": "MEDISER132",
      "extReference": "61440390"
    },
    {
      "claimId": 46189027,
      "sfNo": 1,
      "addOrderNo": 1,
      "versionNo": 2,
      "approvedStatus": "P",
      "breResultCode": null,
      "contractId": 514595371,
      "customerType": null,
      "entryDate": "2020-07-23T05:53:43.000+0000",
      "groupCode": null,
      "hclmChannel": "CENTRAL_PROVISION",
      "hclmUsage": null,
      "instituteCode": 918,
      "isLimitUpdated": true,
      "logId": 232996975,
      "partitionNo": 12223,
      "partnerId": 24653586,
      "complementaryTypeCode": null,
      "statusCode": "P",
      "tpaCompanyCode": null,
      "userId": "MEDISER161",
      "extReference": "61440714"
    },
    {
      "claimId": 46187591,
      "sfNo": 1,
      "addOrderNo": 1,
      "versionNo": 1,
      "approvedStatus": "P",
      "breResultCode": null,
      "contractId": 541042411,
      "customerType": null,
      "entryDate": "2020-07-23T13:20:04.000+0000",
      "groupCode": null,
      "hclmChannel": "CENTRAL_PROVISION",
      "hclmUsage": null,
      "instituteCode": 8,
      "isLimitUpdated": true,
      "logId": 232988344,
      "partitionNo": 4119,
      "partnerId": 57681705,
      "complementaryTypeCode": null,
      "statusCode": "P",
      "tpaCompanyCode": null,
      "userId": "MEDISER131",
      "extReference": "61439685"
    },
    {
      "claimId": 46188272,
      "sfNo": 1,
      "addOrderNo": 1,
      "versionNo": 1,
      "approvedStatus": "P",
      "breResultCode": null,
      "contractId": 514595371,
      "customerType": null,
      "entryDate": "2020-07-23T13:20:04.000+0000",
      "groupCode": null,
      "hclmChannel": "CENTRAL_PROVISION",
      "hclmUsage": null,
      "instituteCode": 175,
      "isLimitUpdated": true,
      "logId": 232992048,
      "partitionNo": 54540,
      "partnerId": 102587749,
      "complementaryTypeCode": null,
      "statusCode": "P",
      "tpaCompanyCode": null,
      "userId": "MEDISER28",
      "extReference": "61440423"
    },
    {
      "claimId": 46188271,
      "sfNo": 1,
      "addOrderNo": 1,
      "versionNo": 1,
      "approvedStatus": "P",
      "breResultCode": null,
      "contractId": 541042742,
      "customerType": null,
      "entryDate": "2020-07-23T13:20:04.000+0000",
      "groupCode": null,
      "hclmChannel": "CENTRAL_PROVISION",
      "hclmUsage": null,
      "instituteCode": 175,
      "isLimitUpdated": true,
      "logId": 232992036,
      "partitionNo": 1905,
      "partnerId": 44801540,
      "complementaryTypeCode": null,
      "statusCode": "P",
      "tpaCompanyCode": null,
      "userId": "MEDISER28",
      "extReference": "61440422"
    },
    {
      "claimId": 46187161,
      "sfNo": 1,
      "addOrderNo": 1,
      "versionNo": 1,
      "approvedStatus": "P",
      "breResultCode": null,
      "contractId": 495799368,
      "customerType": null,
      "entryDate": "2020-07-23T13:20:04.000+0000",
      "groupCode": null,
      "hclmChannel": "CENTRAL_PROVISION",
      "hclmUsage": null,
      "instituteCode": 175,
      "isLimitUpdated": true,
      "logId": 232986519,
      "partitionNo": 1,
      "partnerId": 57087961,
      "complementaryTypeCode": null,
      "statusCode": "P",
      "tpaCompanyCode": null,
      "userId": "MEDISER131",
      "extReference": "61439578"
    },
    {
      "claimId": 46187162,
      "sfNo": 1,
      "addOrderNo": 1,
      "versionNo": 1,
      "approvedStatus": "P",
      "breResultCode": null,
      "contractId": 495799368,
      "customerType": null,
      "entryDate": "2020-07-23T13:20:04.000+0000",
      "groupCode": null,
      "hclmChannel": "CENTRAL_PROVISION",
      "hclmUsage": null,
      "instituteCode": 8,
      "isLimitUpdated": true,
      "logId": 232986528,
      "partitionNo": 1,
      "partnerId": 57087961,
      "complementaryTypeCode": null,
      "statusCode": "P",
      "tpaCompanyCode": null,
      "userId": "MEDISER128",
      "extReference": "61439579"
    },
    {
      "claimId": 46188080,
      "sfNo": 1,
      "addOrderNo": 1,
      "versionNo": 1,
      "approvedStatus": "P",
      "breResultCode": null,
      "contractId": 577651802,
      "customerType": null,
      "entryDate": "2020-07-23T13:20:04.000+0000",
      "groupCode": null,
      "hclmChannel": "CENTRAL_PROVISION",
      "hclmUsage": null,
      "instituteCode": 6060,
      "isLimitUpdated": true,
      "logId": 232990912,
      "partitionNo": 1,
      "partnerId": 41444754,
      "complementaryTypeCode": null,
      "statusCode": "P",
      "tpaCompanyCode": null,
      "userId": "MEDISER132",
      "extReference": "61440391"
    },
    {
      "claimId": 46188338,
      "sfNo": 1,
      "addOrderNo": 1,
      "versionNo": 1,
      "approvedStatus": "P",
      "breResultCode": null,
      "contractId": 506591913,
      "customerType": null,
      "entryDate": "2020-07-23T13:20:04.000+0000",
      "groupCode": null,
      "hclmChannel": "CENTRAL_PROVISION",
      "hclmUsage": null,
      "instituteCode": 175,
      "isLimitUpdated": true,
      "logId": 232992432,
      "partitionNo": 129,
      "partnerId": 100130675,
      "complementaryTypeCode": null,
      "statusCode": "P",
      "tpaCompanyCode": null,
      "userId": "MEDISER131",
      "extReference": "61440432"
    }
  ],
  "uiMessages": null,
  "tracingId": null
}
