{
  "data": {
    "content": [
      {
        "logId": 232973067,
        "orderNo": 1,
        "serviceName": "ALZ_HCLM_CONVERTER_UTILS",
        "processInfo": "http://uatesb.allianz.com.tr:12000/hclm-health-claim-service/api/v1/provision/createProvision",
        "instituteCode": "1919",
        "insuredNo": "46186142",
        "insuredNoType": "CLAIM_ID",
        "policyRef": null,
        "note": "CREATE_PROVISION_REQUEST",
        "content": "{              \"contractId\" : \"577455400\",              \"instituteCode\" : \"1919\",              \"partitionNo\" : \"1\",              \"realizationDate\" : \"2020-06-24T00:00:00.000+03:00\",              \"logId\" : \"232973067\",              \"claimDetailDto\" : {              \"claimId\" : \"46186142\",              \"addOrderNo\" : \"1\",              \"sfNo\" : \"1\",              \"affluentFlag\" : \"\",              \"ahek\" : \"false\",              \"automated\" : \"false\",              \"beforeComplaintIllness\" : \"\",              \"breResultCode\" : \"\",              \"claimInstLoc\" : \"YI\",              \"claimInstType\" : \"AK\",              \"claimStatusType\" : \"\",              \"classDisease1\" : \"30G83\",              \"classDisease2\" : \"\",              \"classDisease3\" : \"\",              \"closeDate\" : \"\",              \"commDate\" : \"\",              \"communicationExp1\" : \"\",              \"communicationExp2\" : \"\",              \"communicationNo\" : \"\",              \"communicationNumber1\" : \"\",              \"communicationNumber2\" : \"\",              \"complaintStart\" : \"\",              \"complementary\" : \"true\",              \"consultationDiagnosis\" : \"\",              \"contractMessage\" : \"\",              \"countryCode\" : \"\",              \"cpaStatus\" : \"\",              \"dateOfLoss\" : \"2020-06-24T00:00:00.000+03:00\",              \"deductionRate\" : \"\",              \"dhInst\" : \"\",              \"dischargeDate\" : \"2020-06-24T00:00:00.000+03:00\",              \"doctorCode\" : \"42658\",              \"doctorStatus\" : \"\",              \"doctorType\" : \"Anlaşmalı Doktor\",              \"drDiplomaNo\" : \"\",              \"drNameLastname\" : \"MUSTAFA ALTIN\",              \"eprescriptionNo\" : \"\",              \"exGratia\" : \"false\",              \"exGratiaFee\" : \"\",              \"examDate\" : \"\",              \"examinationsResults\" : \"\",              \"explanation\" : \"\",              \"extDoctor\" : \"false\",              \"extDoctorAmt\" : \"\",              \"finalClassDisease1\" : \"\",              \"finalClassDisease2\" : \"\",              \"finalClassDisease3\" : \"\",              \"fromCityCode\" : \"\",              \"fromDistrictCode\" : \"\",              \"fromToPlace\" : \"\",              \"groupCode\" : \"\",              \"hasUnreadableDoc\" : \"\",              \"hlthSrvPay\" : \"\",              \"hospitalAmt\" : \"\",              \"hospitalRefNo\" : \"\",              \"hospitalizeApprFormExpl1\" : \"\",              \"hospitalizeApprFormExpl2\" : \"\",              \"hospitalizeDate\" : \"2020-06-24T00:00:00.000+03:00\",              \"identitiyType\" : \"\",              \"identityNo\" : \"\",              \"identityNumber\" : \"\",              \"instGlnCode\" : \"\",              \"instTaxNumber\" : \"\",              \"instTaxOffice\" : \"\",              \"instituteCode\" : \"1919\",              \"invoiceDate\" : \"\",              \"invoiceExplanation\" : \"\",              \"invoiceNo\" : \"\",              \"invoiceTotal\" : \"\",              \"judicial\" : \"false\",              \"lastMenstDate\" : \"\",              \"medicalBackground\" : \"\",              \"medulaDate\" : \"\",              \"nationality\" : \"\",              \"ok\" : \"false\",              \"onlyExaminationFee\" : \"false\",              \"origClaimInstLoc\" : \"YI\",              \"origClaimInstType\" : \"AK\",              \"original\" : \"false\",              \"otherCountry\" : \"\",              \"otherCountryCity\" : \"\",              \"packageDate\" : \"2016-04-01T00:00:00.000+03:00\",              \"packageId\" : \"118496\",              \"partId\" : \"131536931\",              \"patientAdmittanceDate\" : \"\",              \"patientComplaint\" : \"\",              \"patientVisitMade\" : \"false\",              \"paymentTotal\" : \"\",              \"personalNotes\" : \"\",              \"plannedTreatmentProc\" : \"\",              \"possDischargeDate\" : \"2020-06-24T00:00:00.000+03:00\",              \"possHospitalizeDate\" : \"2020-06-24T00:00:00.000+03:00\",              \"prediagnosisDiagnosis\" : \"\",              \"pregnant\" : \"false\",              \"prescriptionDate\" : \"\",              \"prescriptionNo\" : \"\",              \"prescriptionType\" : \"\",              \"processDate\" : \"2020-06-24T18:59:08.000+03:00\",              \"provisionFeeChargeDate\" : \"\",              \"provisionDate\" : \"2020-06-24T00:00:00.000+03:00\",              \"provisionUserId\" : \"MEDISER132\",              \"provDemandDate\" : \"\",              \"processExp\" : \"\",              \"sgkRefNo\" : \"\",              \"socSecInstApp\" : \"\",              \"shippingDate\" : \"\",              \"shippingNo\" : \"\",              \"realizationDate\" : \"\",              \"relClaimId\" : \"\",              \"sgkTotal\" : \"0\",              \"referralInstituteName\" : \"\",              \"requestAmount\" : \"\",              \"requestSystem\" : \"OPUS\",              \"sgkUsed\" : \"false\",              \"referral\" : \"false\",              \"suspense\" : \"false\",              \"suspenseDate\" : \"\",              \"specialtySubject\" : \"1090\",              \"statusCode\" : \"\",              \"swiftCode\" : \"TL\",              \"toCityCode\" : \"\",              \"toDistrictCode\" : \"\",              \"timeStamp\" : \"\",              \"surgeryDate\" : \"\",              \"visitingReason\" : \"\",              \"urgentCure\" : \"false\",              \"wrongProvision\" : \"false\",              \"web\" : \"false\",              \"webLocationCode\" : \"930\",              \"ytType\" : \"\",              \"updateLimit\" : \"true\",              \"versionNo\" : \"0\",              \"previousStatusCode\" : \"X\",              \"denySms\":\"false\",              \"verifiedFromMedula\":\"\",                  \"itemList\" : [],                  \"medicineList\" : [],                  \"processList\": [],                  \"provisionList\": [{                \"daySeance\" : \"0\",                \"exemptionAmount\" : \"0\",                \"entryDate\" : \"\",                \"countryCode\" : \"\",                \"exemptionRate\" : \"\",                \"addOrderNo\" : \"1\",                \"addProcAmount\" : \"0\",                \"doctorCode\" : \"\",                \"doctorStatus\" : \"\",                \"breResultCode\" : \"\",                \"coverDistributionAmount\" : \"0\",                \"claimId\" : \"46186142\",                \"coverCode\" : \"ST534\",                \"isExGratia\" : \"\",                \"isPoolCover\" : \"0\",                \"isSpecialCover\" : \"0\",                \"procRequestAmount\" : \"0\",                \"procRefusalAmount\" : \"0\",                \"instExemptionAmount\" : \"\",                \"instRequestAmount\" : \"5000\",                \"provDateTime\" : \"\",                \"orderNo\" : \"\",                \"instAddProcAmount\" : \"0\",                \"locationCode\" : \"930\",                \"provisionTotal\" : \"0\",                \"provisionExplanation\" : \"asdas\",                \"requestAmount\" : \"5000\",                \"refusalAmount\" : \"0\",                \"swiftCode\" : \"TL\",                \"reqCureDayCount\" : \"0\",                \"statusCode\" : \"PP\",                \"userId\" : \"MEDISER132\",                \"sysRequestAmount\" : \"5000\",                \"sgkAmount\" : \"0\",                \"timeStamp\" : \"\",                \"subPackageId\" : \"\",                \"subPackageDate\" : \"\",                \"sfNo\" : \"1\"              }],                  \"rejectLossList\": [],                  \"vaccineList\" : []               },               \"userDto\" : {                  \"userId\" : \"MEDISER132\",                  \"userName\" : \"MEDISER132\"               }          }",
        "logDate": "2020-06-24",
        "userId": null,
        "logMode": "NORMAL",
        "logType": null,
        "logSource": "PLSQL CENTRAL_PROVISION"
      },
      {
        "logId": 232973067,
        "orderNo": 2,
        "serviceName": "CoverProvisionBo",
        "processInfo": "createCoverBasedProvision",
        "instituteCode": "1919",
        "insuredNo": "46186142",
        "insuredNoType": "CLAIM_ID",
        "policyRef": null,
        "note": "hclm-request-json",
        "content": "{\n  \"userDto\" : {\n    \"userId\" : \"MEDISER132\",\n    \"userName\" : \"MEDISER132\",\n    \"age\" : 0\n  },\n  \"logId\" : 232973067,\n  \"contractId\" : 577455400,\n  \"partitionNo\" : 1,\n  \"instituteCode\" : 1919,\n  \"realizationDate\" : 1592946000000,\n  \"claimDetailDto\" : {\n    \"claimId\" : 46186142,\n    \"sfNo\" : 1,\n    \"addOrderNo\" : 1,\n    \"provisionList\" : [ {\n      \"claimId\" : 46186142,\n      \"sfNo\" : 1,\n      \"addOrderNo\" : 1,\n      \"locationCode\" : 930,\n      \"coverCode\" : \"ST534\",\n      \"addProcAmount\" : 0,\n      \"breResultCode\" : \"\",\n      \"countryCode\" : \"\",\n      \"coverDistributionAmount\" : 0,\n      \"daySeance\" : 0,\n      \"doctorStatus\" : \"\",\n      \"exemptionAmount\" : 0,\n      \"instAddProcAmount\" : 0,\n      \"instRequestAmount\" : 5000,\n      \"isPoolCover\" : 0,\n      \"isSpecialCover\" : 0,\n      \"orderNo\" : \"\",\n      \"procRefusalAmount\" : 0,\n      \"procRequestAmount\" : 0,\n      \"provisionExplanation\" : \"asdas\",\n      \"provisionTotal\" : 0,\n      \"refusalAmount\" : 0,\n      \"reqCureDayCount\" : 0,\n      \"requestAmount\" : 5000,\n      \"sgkAmount\" : 0,\n      \"statusCode\" : \"PP\",\n      \"swiftCode\" : \"TL\",\n      \"sysRequestAmount\" : 5000,\n      \"userId\" : \"MEDISER132\"\n    } ],\n    \"processList\" : [ ],\n    \"itemList\" : [ ],\n    \"rejectLossList\" : [ ],\n    \"medicineList\" : [ ],\n    \"vaccineList\" : [ ],\n    \"beforeComplaintIllness\" : \"\",\n    \"breResultCode\" : \"\",\n    \"claimInstLoc\" : \"YI\",\n    \"claimInstType\" : \"AK\",\n    \"classDisease1\" : \"30G83\",\n    \"classDisease2\" : \"\",\n    \"classDisease3\" : \"\",\n    \"communicationExp1\" : \"\",\n    \"communicationExp2\" : \"\",\n    \"communicationNumber1\" : \"\",\n    \"communicationNumber2\" : \"\",\n    \"complaintStart\" : \"\",\n    \"consultationDiagnosis\" : \"\",\n    \"contractMessage\" : \"\",\n    \"countryCode\" : \"\",\n    \"cpaStatus\" : \"\",\n    \"dateOfLoss\" : 1592946000000,\n    \"dischargeDate\" : 1592946000000,\n    \"doctorCode\" : 42658,\n    \"doctorStatus\" : \"\",\n    \"doctorType\" : \"Anlaşmalı Doktor\",\n    \"drDiplomaNo\" : \"\",\n    \"drNameLastname\" : \"MUSTAFA ALTIN\",\n    \"examinationsResults\" : \"\",\n    \"explanation\" : \"\",\n    \"finalClassDisease1\" : \"\",\n    \"finalClassDisease2\" : \"\",\n    \"finalClassDisease3\" : \"\",\n    \"fromCityCode\" : \"\",\n    \"fromDistrictCode\" : \"\",\n    \"fromToPlace\" : \"\",\n    \"groupCode\" : \"\",\n    \"hasUnreadableDoc\" : \"\",\n    \"hospitalRefNo\" : \"\",\n    \"hospitalizeApprFormExpl1\" : \"\",\n    \"hospitalizeApprFormExpl2\" : \"\",\n    \"hospitalizeDate\" : 1592946000000,\n    \"identitiyType\" : \"\",\n    \"identityNo\" : \"\",\n    \"identityNumber\" : \"\",\n    \"instGlnCode\" : \"\",\n    \"instTaxNumber\" : \"\",\n    \"instTaxOffice\" : \"\",\n    \"instituteCode\" : 1919,\n    \"invoiceExplanation\" : \"\",\n    \"invoiceNo\" : \"\",\n    \"ahek\" : false,\n    \"automated\" : false,\n    \"complementary\" : true,\n    \"exGratia\" : false,\n    \"extDoctor\" : false,\n    \"judicial\" : false,\n    \"ok\" : false,\n    \"onlyExaminationFee\" : false,\n    \"original\" : false,\n    \"patientVisitMade\" : false,\n    \"pregnant\" : false,\n    \"referral\" : false,\n    \"sgkUsed\" : false,\n    \"suspense\" : false,\n    \"urgentCure\" : false,\n    \"web\" : false,\n    \"wrongProvision\" : false,\n    \"medicalBackground\" : \"\",\n    \"nationality\" : \"\",\n    \"origClaimInstLoc\" : \"YI\",\n    \"origClaimInstType\" : \"AK\",\n    \"otherCountry\" : \"\",\n    \"otherCountryCity\" : \"\",\n    \"packageDate\" : 1459458000000,\n    \"packageId\" : 118496,\n    \"partId\" : 131536931,\n    \"patientComplaint\" : \"\",\n    \"personalNotes\" : \"\",\n    \"plannedTreatmentProc\" : \"\",\n    \"possDischargeDate\" : 1592946000000,\n    \"possHospitalizeDate\" : 1592946000000,\n    \"prediagnosisDiagnosis\" : \"\",\n    \"processDate\" : 1593014348000,\n    \"processExp\" : \"\",\n    \"provisionDate\" : 1592946000000,\n    \"provisionUserId\" : \"MEDISER132\",\n    \"referralInstituteName\" : \"\",\n    \"requestSystem\" : \"OPUS\",\n    \"sgkRefNo\" : \"\",\n    \"sgkTotal\" : 0,\n    \"specialtySubject\" : \"1090\",\n    \"statusCode\" : \"\",\n    \"swiftCode\" : \"TL\",\n    \"toCityCode\" : \"\",\n    \"toDistrictCode\" : \"\",\n    \"webLocationCode\" : 930,\n    \"ytType\" : \"\",\n    \"versionNo\" : 0,\n    \"updateLimit\" : true,\n    \"previousStatusCode\" : \"X\",\n    \"denySms\" : false,\n    \"verifiedFromMedula\" : \"\"\n  }\n}",
        "logDate": "2020-06-24",
        "userId": "MEDISER132",
        "logMode": "NORMAL",
        "logType": "INFO",
        "logSource": "HCLM"
      },
      {
        "logId": 232973067,
        "orderNo": 3,
        "serviceName": "ProvisionBpmServiceImpl",
        "processInfo": "startAZProvisionProcess",
        "instituteCode": "1919",
        "insuredNo": "46186142",
        "insuredNoType": "CLAIM_ID",
        "policyRef": null,
        "note": "startAZProvisionProcess",
        "content": "{\n  \"arguments\" : {\n    \"entry\" : [ {\n      \"key\" : \"claimIdArg\",\n      \"value\" : \"46186142\"\n    }, {\n      \"key\" : \"institutionCodeArg\",\n      \"value\" : \"1919\"\n    }, {\n      \"key\" : \"processTypeArg\",\n      \"value\" : \"true\"\n    }, {\n      \"key\" : \"locationCodeArg\",\n      \"value\" : \"930\"\n    }, {\n      \"key\" : \"partnerIdArg\",\n      \"value\" : \"131536931\"\n    }, {\n      \"key\" : \"packageIdArg\",\n      \"value\" : \"118496\"\n    }, {\n      \"key\" : \"productIdArg\",\n      \"value\" : \"63\"\n    }, {\n      \"key\" : \"partitionTypeArg\",\n      \"value\" : \"TSS\"\n    }, {\n      \"key\" : \"groupCodeArg\",\n      \"value\" : \"\"\n    }, {\n      \"key\" : \"policyRefArg\",\n      \"value\" : \"0001071004115433\"\n    }, {\n      \"key\" : \"agencyRefCodeArg\",\n      \"value\" : \"6833\"\n    }, {\n      \"key\" : \"provisionTypeArg\",\n      \"value\" : \"true\"\n    }, {\n      \"key\" : \"stateArg\",\n      \"value\" : \"P\"\n    } ]\n  }\n}",
        "logDate": "2020-06-24",
        "userId": "MEDISER132",
        "logMode": "NORMAL",
        "logType": "INFO",
        "logSource": "HCLM"
      },
      {
        "logId": 232973067,
        "orderNo": 4,
        "serviceName": "ProvisionBpmServiceImpl",
        "processInfo": "createInstance",
        "instituteCode": "1919",
        "insuredNo": "46186142",
        "insuredNoType": "CLAIM_ID",
        "policyRef": null,
        "note": "processCreateInstance",
        "content": "{\n  \"username\" : \"MEDISER132\",\n  \"targetProcessId\" : \"AZProvision\",\n  \"argumentsSetName\" : \"BeginIn\",\n  \"arguments\" : {\n    \"arguments\" : {\n      \"entry\" : [ {\n        \"key\" : \"claimIdArg\",\n        \"value\" : \"46186142\"\n      }, {\n        \"key\" : \"institutionCodeArg\",\n        \"value\" : \"1919\"\n      }, {\n        \"key\" : \"processTypeArg\",\n        \"value\" : \"true\"\n      }, {\n        \"key\" : \"locationCodeArg\",\n        \"value\" : \"930\"\n      }, {\n        \"key\" : \"partnerIdArg\",\n        \"value\" : \"131536931\"\n      }, {\n        \"key\" : \"packageIdArg\",\n        \"value\" : \"118496\"\n      }, {\n        \"key\" : \"productIdArg\",\n        \"value\" : \"63\"\n      }, {\n        \"key\" : \"partitionTypeArg\",\n        \"value\" : \"TSS\"\n      }, {\n        \"key\" : \"groupCodeArg\",\n        \"value\" : \"\"\n      }, {\n        \"key\" : \"policyRefArg\",\n        \"value\" : \"0001071004115433\"\n      }, {\n        \"key\" : \"agencyRefCodeArg\",\n        \"value\" : \"6833\"\n      }, {\n        \"key\" : \"provisionTypeArg\",\n        \"value\" : \"true\"\n      }, {\n        \"key\" : \"stateArg\",\n        \"value\" : \"P\"\n      } ]\n    }\n  }\n}",
        "logDate": "2020-06-24",
        "userId": "MEDISER132",
        "logMode": "NORMAL",
        "logType": "INFO",
        "logSource": "HCLM"
      },
      {
        "logId": 232973067,
        "orderNo": 5,
        "serviceName": "CoverProvisionBo",
        "processInfo": "createCoverBasedProvision",
        "instituteCode": "1919",
        "insuredNo": "46186142",
        "insuredNoType": "CLAIM_ID",
        "policyRef": null,
        "note": "hclm-response-json",
        "content": "{\n  \"claimDetailDto\" : {\n    \"claimId\" : 46186142,\n    \"sfNo\" : 1,\n    \"addOrderNo\" : 1,\n    \"extReference\" : \"61438284\",\n    \"provisionList\" : [ {\n      \"claimId\" : 46186142,\n      \"sfNo\" : 1,\n      \"addOrderNo\" : 1,\n      \"extReference\" : \"61438284\",\n      \"locationCode\" : 930,\n      \"coverCode\" : \"ST534\",\n      \"addProcAmount\" : 0,\n      \"breResultCode\" : \"\",\n      \"countryCode\" : \"\",\n      \"coverDistributionAmount\" : 0,\n      \"daySeance\" : 0,\n      \"doctorStatus\" : \"\",\n      \"exemptionAmount\" : 0.000,\n      \"exemptionRate\" : 0,\n      \"instAddProcAmount\" : 0,\n      \"instExemptionAmount\" : 0.000,\n      \"instRequestAmount\" : 5000,\n      \"isPoolCover\" : 0,\n      \"isSpecialCover\" : 0,\n      \"orderNo\" : \"\",\n      \"procRefusalAmount\" : 0,\n      \"procRequestAmount\" : 0,\n      \"provisionExplanation\" : \"asdas\",\n      \"provisionTotal\" : 5000.000,\n      \"refusalAmount\" : 0,\n      \"reqCureDayCount\" : 0,\n      \"requestAmount\" : 5000,\n      \"sgkAmount\" : 0,\n      \"statusCode\" : \"P\",\n      \"subPackageDate\" : 1575752400000,\n      \"subPackageId\" : 118493,\n      \"swiftCode\" : \"TL\",\n      \"sysRequestAmount\" : 5000,\n      \"userId\" : \"MEDISER132\",\n      \"parity\" : 1,\n      \"insuredAmount\" : 0.000,\n      \"netProvisionAmount\" : 5000.000\n    } ],\n    \"processList\" : [ ],\n    \"itemList\" : [ ],\n    \"rejectLossList\" : [ ],\n    \"medicineList\" : [ ],\n    \"vaccineList\" : [ ],\n    \"claimPolicyBasesDto\" : {\n      \"claimId\" : 46186142,\n      \"sfNo\" : 1,\n      \"addOrderNo\" : 1,\n      \"extReference\" : \"61438284\",\n      \"contractId\" : 577455400,\n      \"agentRole\" : 10672,\n      \"contractStatus\" : \"I\",\n      \"dateOfLoss\" : 1592946000000,\n      \"policyRef\" : \"0001071004115433\",\n      \"productId\" : 63,\n      \"termEndDate\" : 1622581200000,\n      \"termStartDate\" : 1591045200000,\n      \"versionNo\" : 1\n    },\n    \"claimPolOarDto\" : {\n      \"claimId\" : 46186142,\n      \"sfNo\" : 1,\n      \"addOrderNo\" : 1,\n      \"extReference\" : \"61438284\",\n      \"contractId\" : 577455400,\n      \"oarNo\" : 1,\n      \"versionNo\" : 1\n    },\n    \"beforeComplaintIllness\" : \"\",\n    \"breResultCode\" : \"\",\n    \"claimInstLoc\" : \"YI\",\n    \"claimInstType\" : \"AK\",\n    \"classDisease1\" : \"30G83\",\n    \"classDisease2\" : \"\",\n    \"classDisease3\" : \"\",\n    \"communicationExp1\" : \"\",\n    \"communicationExp2\" : \"\",\n    \"communicationNumber1\" : \"\",\n    \"communicationNumber2\" : \"\",\n    \"complaintStart\" : \"\",\n    \"consultationDiagnosis\" : \"\",\n    \"contractMessage\" : \"\",\n    \"countryCode\" : \"\",\n    \"cpaStatus\" : \"\",\n    \"dateOfLoss\" : 1592946000000,\n    \"dischargeDate\" : 1592946000000,\n    \"doctorCode\" : 42658,\n    \"doctorStatus\" : \"\",\n    \"doctorType\" : \"Anlaşmalı Doktor\",\n    \"drDiplomaNo\" : \"\",\n    \"drNameLastname\" : \"MUSTAFA ALTIN\",\n    \"examinationsResults\" : \"\",\n    \"explanation\" : \"\",\n    \"finalClassDisease1\" : \"\",\n    \"finalClassDisease2\" : \"\",\n    \"finalClassDisease3\" : \"\",\n    \"fromCityCode\" : \"\",\n    \"fromDistrictCode\" : \"\",\n    \"fromToPlace\" : \"\",\n    \"groupCode\" : \"\",\n    \"hasUnreadableDoc\" : \"\",\n    \"hospitalRefNo\" : \"\",\n    \"hospitalizeApprFormExpl1\" : \"\",\n    \"hospitalizeApprFormExpl2\" : \"\",\n    \"hospitalizeDate\" : 1592946000000,\n    \"identitiyType\" : \"\",\n    \"identityNo\" : \"\",\n    \"identityNumber\" : \"\",\n    \"instGlnCode\" : \"\",\n    \"instTaxNumber\" : \"\",\n    \"instTaxOffice\" : \"\",\n    \"instituteCode\" : 1919,\n    \"invoiceExplanation\" : \"\",\n    \"invoiceNo\" : \"\",\n    \"ahek\" : false,\n    \"automated\" : false,\n    \"complementary\" : true,\n    \"exGratia\" : false,\n    \"extDoctor\" : false,\n    \"judicial\" : false,\n    \"ok\" : false,\n    \"onlyExaminationFee\" : false,\n    \"original\" : false,\n    \"patientVisitMade\" : false,\n    \"pregnant\" : false,\n    \"referral\" : false,\n    \"sgkUsed\" : false,\n    \"suspense\" : false,\n    \"urgentCure\" : false,\n    \"web\" : false,\n    \"wrongProvision\" : false,\n    \"medicalBackground\" : \"\",\n    \"nationality\" : \"\",\n    \"origClaimInstLoc\" : \"YI\",\n    \"origClaimInstType\" : \"AK\",\n    \"otherCountry\" : \"\",\n    \"otherCountryCity\" : \"\",\n    \"packageDate\" : 1459458000000,\n    \"packageId\" : 118496,\n    \"partId\" : 131536931,\n    \"patientComplaint\" : \"\",\n    \"personalNotes\" : \"\",\n    \"plannedTreatmentProc\" : \"\",\n    \"possDischargeDate\" : 1592946000000,\n    \"possHospitalizeDate\" : 1592946000000,\n    \"prediagnosisDiagnosis\" : \"\",\n    \"processDate\" : 1593014348000,\n    \"processExp\" : \"\",\n    \"provisionDate\" : 1592946000000,\n    \"provisionUserId\" : \"MEDISER132\",\n    \"referralInstituteName\" : \"\",\n    \"requestSystem\" : \"OPUS\",\n    \"sgkRefNo\" : \"\",\n    \"sgkTotal\" : 0,\n    \"specialtySubject\" : \"1090\",\n    \"statusCode\" : \"P\",\n    \"swiftCode\" : \"TL\",\n    \"toCityCode\" : \"\",\n    \"toDistrictCode\" : \"\",\n    \"webLocationCode\" : 930,\n    \"ytType\" : \"\",\n    \"versionNo\" : 0,\n    \"updateLimit\" : true,\n    \"previousStatusCode\" : \"\",\n    \"denySms\" : false,\n    \"verifiedFromMedula\" : \"\"\n  },\n  \"resultDto\" : {\n    \"successfull\" : true\n  }\n}",
        "logDate": "2020-06-24",
        "userId": "MEDISER132",
        "logMode": "NORMAL",
        "logType": "INFO",
        "logSource": "HCLM"
      },
      {
        "logId": 232973067,
        "orderNo": 6,
        "serviceName": "HclmRequestFilter",
        "processInfo": "bpmAnalyze",
        "instituteCode": "1919",
        "insuredNo": "46186142",
        "insuredNoType": "CLAIM_ID",
        "policyRef": null,
        "note": "bpm-call-count",
        "content": "1",
        "logDate": "2020-06-24",
        "userId": "MEDISER132",
        "logMode": "NORMAL",
        "logType": "INFO",
        "logSource": "HCLM"
      },
      {
        "logId": 232973067,
        "orderNo": 7,
        "serviceName": "HclmRequestFilter",
        "processInfo": "bpmAnalyze",
        "instituteCode": "1919",
        "insuredNo": "46186142",
        "insuredNoType": "CLAIM_ID",
        "policyRef": null,
        "note": "bpm-summary",
        "content": "24/06/2020 18:59:11\tprocessCreateInstance\tAZProvision-BeginIn\n",
        "logDate": "2020-06-24",
        "userId": "MEDISER132",
        "logMode": "NORMAL",
        "logType": "INFO",
        "logSource": "HCLM"
      },
      {
        "logId": 232973067,
        "orderNo": 8,
        "serviceName": "HclmRequestFilter",
        "processInfo": "cacheableAnalyze",
        "instituteCode": "1919",
        "insuredNo": "46186142",
        "insuredNoType": "CLAIM_ID",
        "policyRef": null,
        "note": "cacheable-duration-in-ms",
        "content": "2",
        "logDate": "2020-06-24",
        "userId": "MEDISER132",
        "logMode": "NORMAL",
        "logType": "INFO",
        "logSource": "HCLM"
      },
      {
        "logId": 232973067,
        "orderNo": 9,
        "serviceName": "HclmRequestFilter",
        "processInfo": "cacheableAnalyze",
        "instituteCode": "1919",
        "insuredNo": "46186142",
        "insuredNoType": "CLAIM_ID",
        "policyRef": null,
        "note": "cacheable-summary",
        "content": "24/06/2020 18:59:10\tClaimDetailDao.getOutstandingDate(..)\t2020-06-24\t2 ms.\n",
        "logDate": "2020-06-24",
        "userId": "MEDISER132",
        "logMode": "NORMAL",
        "logType": "INFO",
        "logSource": "HCLM"
      },
      {
        "logId": 232973067,
        "orderNo": 10,
        "serviceName": "ALZ_HCLM_CONVERTER_UTILS",
        "processInfo": "http://uatesb.allianz.com.tr:12000/hclm-health-claim-service/api/v1/provision/createProvision",
        "instituteCode": "1919",
        "insuredNo": null,
        "insuredNoType": null,
        "policyRef": null,
        "note": "CREATE_PROVISION_RESPONSE",
        "content": "{\"data\" : {\"claimDetailDto\" : {\"claimId\" : 46186142,\"sfNo\" : 1,\"addOrderNo\" : 1,\"extReference\" : \"61438284\",\"provisionList\" : [ {\"claimId\" : 46186142,\"sfNo\" : 1,\"addOrderNo\" : 1,\"extReference\" : \"61438284\",\"locationCode\" : 930,\"coverCode\" : \"ST534\",\"coverCodeExplanation\" : null,\"addProcAmount\" : 0,\"breResultCode\" : \"\",\"countryCode\" : \"\",\"coverDistributionAmount\" : 0,\"daySeance\" : 0,\"doctorCode\" : null,\"doctorStatus\" : \"\",\"entryDate\" : null,\"exemptionAmount\" : 0.000,\"exemptionRate\" : 0,\"instAddProcAmount\" : 0,\"instExemptionAmount\" : 0.000,\"instRequestAmount\" : 5000,\"instWrongAmount\" : null,\"isExGratia\" : null,\"isPoolCover\" : 0,\"isSpecialCover\" : 0,\"orderNo\" : \"\",\"procRefusalAmount\" : 0,\"procRequestAmount\" : 0,\"provDateTime\" : null,\"provisionExplanation\" : \"asdas\",\"provisionTotal\" : 5000.000,\"refusalAmount\" : 0,\"reqCureDayCount\" : 0,\"requestAmount\" : 5000,\"sgkAmount\" : 0,\"statusCode\" : \"P\",\"subPackageDate\" : \"2019-12-07T21:00:00.000+0000\",\"subPackageId\" : 118493,\"swiftCode\" : \"TL\",\"sysRequestAmount\" : 5000,\"timeStamp\" : null,\"userId\" : \"MEDISER132\",\"parity\" : 1,\"insuredAmount\" : 0.000,\"netProvisionAmount\" : 5000.000,\"rcoverPrice\" : null,\"fdaySeance\" : null} ],\"processList\" : [ ],\"notMatchProcessList\" : null,\"itemList\" : [ ],\"rejectLossList\" : [ ],\"medicineList\" : [ ],\"vaccineList\" : [ ],\"diagnosisList\" : null,\"webAuthorizationList\" : null,\"surgeryDetailDtoList\" : null,\"patientInfoForm\" : null,\"patientRelationDetailDto\" : null,\"healthClaimStatusDtoList\" : null,\"healthClaimStatusHistoryDtoList\" : null,\"claimPolicyBasesDto\" : {\"claimId\" : 46186142,\"sfNo\" : 1,\"addOrderNo\" : 1,\"extReference\" : \"61438284\",\"contractId\" : 577455400,\"agentRole\" : 10672,\"companyId\" : null,\"contractStatus\" : \"I\",\"dateOfLoss\" : \"2020-06-23T21:00:00.000+0000\",\"extRefNo\" : null,\"groupId\" : null,\"policyRef\" : \"0001071004115433\",\"prodVersion\" : null,\"productId\" : 63,\"termEndDate\" : \"2021-06-01T21:00:00.000+0000\",\"termStartDate\" : \"2020-06-01T21:00:00.000+0000\",\"versionNo\" : 1},\"claimPolOarDto\" : {\"claimId\" : 46186142,\"sfNo\" : 1,\"addOrderNo\" : 1,\"extReference\" : \"61438284\",\"contractId\" : 577455400,\"oarNo\" : 1,\"objectId\" : null,\"versionNo\" : 1},\"affluentFlag\" : null,\"beforeComplaintIllness\" : \"\",\"breResultCode\" : \"\",\"claimInstLoc\" : \"YI\",\"claimInstType\" : \"AK\",\"classDisease1\" : \"30G83\",\"classDisease2\" : \"\",\"classDisease3\" : \"\",\"closeDate\" : null,\"commDate\" : null,\"communicationExp1\" : \"\",\"communicationExp2\" : \"\",\"communicationNo\" : null,\"communicationNumber1\" : \"\",\"communicationNumber2\" : \"\",\"complaintStart\" : \"\",\"consultationDiagnosis\" : \"\",\"contractMessage\" : \"\",\"countryCode\" : \"\",\"cpaStatus\" : \"\",\"dateOfLoss\" : \"2020-06-23T21:00:00.000+0000\",\"deductionRate\" : null,\"dhInst\" : null,\"dischargeDate\" : \"2020-06-23T21:00:00.000+0000\",\"doctorCode\" : 42658,\"doctorInfo\" : null,\"recourseInfo\" : null,\"doctorStatus\" : \"\",\"doctorType\" : \"Anlaşmalı Doktor\",\"drDiplomaNo\" : \"\",\"drNameLastname\" : \"MUSTAFA ALTIN\",\"exGratiaFee\" : null,\"examDate\" : null,\"examinationsResults\" : \"\",\"explanation\" : \"\",\"extDoctorAmt\" : null,\"finalClassDisease1\" : \"\",\"finalClassDisease2\" : \"\",\"finalClassDisease3\" : \"\",\"explanationList\" : null,\"ibanCode\" : null,\"fromCityCode\" : \"\",\"fromDistrictCode\" : \"\",\"fromToPlace\" : \"\",\"groupCode\" : \"\",\"hasUnreadableDoc\" : \"\",\"hlthSrvPay\" : null,\"hospitalAmt\" : null,\"hospitalRefNo\" : \"\",\"hospitalizeApprFormExpl1\" : \"\",\"hospitalizeApprFormExpl2\" : \"\",\"hospitalizeDate\" : \"2020-06-23T21:00:00.000+0000\",\"identitiyType\" : \"\",\"identityNo\" : \"\",\"identityNumber\" : \"\",\"instGlnCode\" : \"\",\"instTaxNumber\" : \"\",\"instTaxOffice\" : \"\",\"instituteCode\" : 1919,\"invoiceDate\" : null,\"invoiceExplanation\" : \"\",\"invoiceNo\" : \"\",\"invoiceTotal\" : null,\"ahek\" : false,\"automated\" : false,\"complementary\" : true,\"exGratia\" : false,\"extDoctor\" : false,\"judicial\" : false,\"ok\" : false,\"onlyExaminationFee\" : false,\"original\" : false,\"patientVisitMade\" : false,\"pregnant\" : false,\"referral\" : false,\"sgkUsed\" : false,\"suspense\" : false,\"urgentCure\" : false,\"web\" : false,\"wrongProvision\" : false,\"lastMenstDate\" : null,\"medicalBackground\" : \"\",\"medulaDate\" : null,\"nationality\" : \"\",\"origClaimInstLoc\" : \"YI\",\"origClaimInstType\" : \"AK\",\"otherCountry\" : \"\",\"otherCountryCity\" : \"\",\"packageDate\" : \"2016-03-31T21:00:00.000+0000\",\"packageId\" : 118496,\"partId\" : 131536931,\"patientAdmittanceDate\" : null,\"patientComplaint\" : \"\",\"paymentTotal\" : null,\"personalNotes\" : \"\",\"plannedTreatmentProc\" : \"\",\"possDischargeDate\" : \"2020-06-23T21:00:00.000+0000\",\"possHospitalizeDate\" : \"2020-06-23T21:00:00.000+0000\",\"prediagnosisDiagnosis\" : \"\",\"prescriptionDate\" : null,\"prescriptionNo\" : null,\"prescriptionType\" : null,\"processDate\" : \"2020-06-24T15:59:08.000+0000\",\"processExp\" : \"\",\"provDemandDate\" : null,\"provisionDate\" : \"2020-06-23T21:00:00.000+0000\",\"provisionFeeChargeDate\" : null,\"provisionUserId\" : \"MEDISER132\",\"realizationDate\" : null,\"referralInstituteName\" : \"\",\"relClaimId\" : null,\"requestAmount\" : null,\"requestSystem\" : \"OPUS\",\"sgkRefNo\" : \"\",\"sgkTotal\" : 0,\"shippingDate\" : null,\"shippingNo\" : null,\"socSecInstApp\" : null,\"specialtySubject\" : \"1090\",\"statusCode\" : \"P\",\"surgeryDate\" : null,\"suspenseDate\" : null,\"swiftCode\" : \"TL\",\"timeStamp\" : null,\"toCityCode\" : \"\",\"toDistrictCode\" : \"\",\"visitingReason\" : null,\"webLocationCode\" : 930,\"ytType\" : \"\",\"versionNo\" : 0,\"updateLimit\" : true,\"breDecisionLogList\" : null,\"previousStatusCode\" : \"\",\"denySms\" : false,\"verifiedFromMedula\" : \"\",\"companyName\" : null,\"duplicateProvisionList\" : null,\"duplicatePharmacyList\" : null,\"sumInstRequestAmount\" : null,\"sumSysRequestAmount\" : null,\"sumRequestAmount\" : null,\"sumRefusalAmount\" : null,\"sumExemptionAmount\" : null,\"sumSgkAmount\" : null,\"sumInsuredAmount\" : null,\"sumInstWrongAmount\" : null,\"sumNetProvisionAmount\" : null,\"sumCancelAmount\" : null,\"totalInsuredAmount\" : null,\"eprescriptionNo\" : null},\"overPrice\" : null,\"resultDto\" : {\"successfull\" : true,\"errorExplanation\" : null}},\"uiMessages\" : null,\"tracingId\" : \"232973067\"}",
        "logDate": "2020-06-24",
        "userId": "MEDISER132",
        "logMode": "NORMAL",
        "logType": null,
        "logSource": "PLSQL CENTRAL_PROVISION"
      }
    ],
    "pageInfo": {
      "size": 20,
      "totalElements": 10,
      "totalPages": 1,
      "pageNumber": 0
    }
  },
  "uiMessages": null,
  "tracingId": null
}