Models/load/ProcessList.class
Models/load/Data.class
Models/load/ClaimPolOarDto.class
Models/logslist/PageInfo.class
test/ReadJson.class
Models/last24/Provision.class
test/IreadJsonFiles.class
test/ManagerAllReadings.class
Models/load/ProvisionList.class
Models/last24/Last24.class
Models/load/ClaimPolicyBasesDto.class
Models/logslist/LogList.class
Models/load/ExtReference.class
Models/load/HealthClaimDetailDto.class
Models/logslist/Content.class
Models/logslist/Data.class
